{
  "ID": "f672fee4-bdf6-46cf-a274-1d2e80c49696",
  "Message": "",
  "Global": {
    "NewConfirmed": 561661,
    "TotalConfirmed": 136069313,
    "NewDeaths": 8077,
    "TotalDeaths": 2937292,
    "NewRecovered": 487901,
    "TotalRecovered": 77585186,
    "Date": "2021-04-13T02:28:22.158Z"
  },
  "Countries": [
    {
      "ID": "0f4c47b4-01ba-458c-a24d-4050d1881128",
      "Country": "Afghanistan",
      "CountryCode": "AF",
      "Slug": "afghanistan",
      "NewConfirmed": 82,
      "TotalConfirmed": 57242,
      "NewDeaths": 8,
      "TotalDeaths": 2529,
      "NewRecovered": 16,
      "TotalRecovered": 52005,
      "Date": "2021-04-13T02:28:22.158Z",
      "Premium": {}
    },
    {
      "ID": "09050c57-0074-4b67-b734-84fb6f0fa305",
      "Country": "Albania",
      "CountryCode": "AL",
      "Slug": "albania",
      "NewConfirmed": 125,
      "TotalConfirmed": 128518,
      "NewDeaths": 4,
      "TotalDeaths": 2321,
      "NewRecovered": 546,
      "TotalRecovered": 98269,
      "Date": "2021-04-13T02:28:22.158Z",
      "Premium": {}
    },
    {
      "ID": "d876bcee-979d-4b60-b1ea-4c2644ad04d3",
      "Country": "Algeria",
      "CountryCode": "DZ",
      "Slug": "algeria",
      "NewConfirmed": 129,
      "TotalConfirmed": 118645,
      "NewDeaths": 4,
      "TotalDeaths": 3134,
      "NewRecovered": 104,
      "TotalRecovered": 82704,
      "Date": "2021-04-13T02:28:22.158Z",
      "Premium": {}
    },
    {
      "ID": "5bbf1d08-6eb2-40da-b790-c6b000ac9b6c",
      "Country": "Andorra",
      "CountryCode": "AD",
      "Slug": "andorra",
      "NewConfirmed": 36,
      "TotalConfirmed": 12581,
      "NewDeaths": 1,
      "TotalDeaths": 121,
      "NewRecovered": 65,
      "TotalRecovered": 11890,
      "Date": "2021-04-13T02:28:22.158Z",
      "Premium": {}
    },
    {
      "ID": "101e6f58-f9a8-41d0-ba92-c3ed6739a4fe",
      "Country": "Angola",
      "CountryCode": "AO",
      "Slug": "angola",
      "NewConfirmed": 92,
      "TotalConfirmed": 23549,
      "NewDeaths": 1,
      "TotalDeaths": 554,
      "NewRecovered": 35,
      "TotalRecovered": 22093,
      "Date": "2021-04-13T02:28:22.158Z",
      "Premium": {}
    },
    {
      "ID": "9c58c3f6-717e-4d98-b50b-c60d92b7ad66",
      "Country": "Antigua and Barbuda",
      "CountryCode": "AG",
      "Slug": "antigua-and-barbuda",
      "NewConfirmed": 0,
      "TotalConfirmed": 1198,
      "NewDeaths": 0,
      "TotalDeaths": 30,
      "NewRecovered": 0,
      "TotalRecovered": 938,
      "Date": "2021-04-13T02:28:22.158Z",
      "Premium": {}
    },
    {
      "ID": "d69052b1-fa95-4854-999b-c5f2b27f196a",
      "Country": "Argentina",
      "CountryCode": "AR",
      "Slug": "argentina",
      "NewConfirmed": 19437,
      "TotalConfirmed": 2551999,
      "NewDeaths": 178,
      "TotalDeaths": 57957,
      "NewRecovered": 13984,
      "TotalRecovered": 2247124,
      "Date": "2021-04-13T02:28:22.158Z",
      "Premium": {}
    },
    {
      "ID": "cbc44b17-9594-4ea0-8fbc-10a4d84ed5eb",
      "Country": "Armenia",
      "CountryCode": "AM",
      "Slug": "armenia",
      "NewConfirmed": 510,
      "TotalConfirmed": 203327,
      "NewDeaths": 18,
      "TotalDeaths": 3753,
      "NewRecovered": 873,
      "TotalRecovered": 182836,
      "Date": "2021-04-13T02:28:22.158Z",
      "Premium": {}
    },
    {
      "ID": "dc3db2a3-45dc-48c5-a33d-896fbdfc7b28",
      "Country": "Australia",
      "CountryCode": "AU",
      "Slug": "australia",
      "NewConfirmed": 14,
      "TotalConfirmed": 29419,
      "NewDeaths": 0,
      "TotalDeaths": 909,
      "NewRecovered": 2,
      "TotalRecovered": 23085,
      "Date": "2021-04-13T02:28:22.158Z",
      "Premium": {}
    },
    {
      "ID": "d9aafb94-566d-4b09-b251-551bd6e9ae32",
      "Country": "Austria",
      "CountryCode": "AT",
      "Slug": "austria",
      "NewConfirmed": 1943,
      "TotalConfirmed": 578950,
      "NewDeaths": 19,
      "TotalDeaths": 9706,
      "NewRecovered": 2811,
      "TotalRecovered": 538609,
      "Date": "2021-04-13T02:28:22.158Z",
      "Premium": {}
    },
    {
      "ID": "b3770244-946e-4cfd-96af-e011f8dd0a45",
      "Country": "Azerbaijan",
      "CountryCode": "AZ",
      "Slug": "azerbaijan",
      "NewConfirmed": 1151,
      "TotalConfirmed": 287144,
      "NewDeaths": 29,
      "TotalDeaths": 3944,
      "NewRecovered": 1052,
      "TotalRecovered": 251760,
      "Date": "2021-04-13T02:28:22.158Z",
      "Premium": {}
    },
    {
      "ID": "3dbd7b30-8df0-4d7d-a5c5-6bef3b686389",
      "Country": "Bahamas",
      "CountryCode": "BS",
      "Slug": "bahamas",
      "NewConfirmed": 0,
      "TotalConfirmed": 9364,
      "NewDeaths": 0,
      "TotalDeaths": 189,
      "NewRecovered": 0,
      "TotalRecovered": 8837,
      "Date": "2021-04-13T02:28:22.158Z",
      "Premium": {}
    },
    {
      "ID": "75b0d812-5781-4495-aa78-6e99c38bcb9a",
      "Country": "Bahrain",
      "CountryCode": "BH",
      "Slug": "bahrain",
      "NewConfirmed": 1267,
      "TotalConfirmed": 157729,
      "NewDeaths": 5,
      "TotalDeaths": 562,
      "NewRecovered": 1036,
      "TotalRecovered": 145953,
      "Date": "2021-04-13T02:28:22.158Z",
      "Premium": {}
    },
    {
      "ID": "4bd45669-5e56-4da7-a1ce-c8ae36313cf0",
      "Country": "Bangladesh",
      "CountryCode": "BD",
      "Slug": "bangladesh",
      "NewConfirmed": 7201,
      "TotalConfirmed": 691957,
      "NewDeaths": 83,
      "TotalDeaths": 9822,
      "NewRecovered": 4523,
      "TotalRecovered": 581113,
      "Date": "2021-04-13T02:28:22.158Z",
      "Premium": {}
    },
    {
      "ID": "9cca024b-fcdd-4201-b279-ba6a578d26ba",
      "Country": "Barbados",
      "CountryCode": "BB",
      "Slug": "barbados",
      "NewConfirmed": 4,
      "TotalConfirmed": 3734,
      "NewDeaths": 0,
      "TotalDeaths": 44,
      "NewRecovered": 6,
      "TotalRecovered": 3613,
      "Date": "2021-04-13T02:28:22.158Z",
      "Premium": {}
    },
    {
      "ID": "e600bf14-6455-4668-9fc4-046aa124f5ed",
      "Country": "Belarus",
      "CountryCode": "BY",
      "Slug": "belarus",
      "NewConfirmed": 843,
      "TotalConfirmed": 336881,
      "NewDeaths": 9,
      "TotalDeaths": 2363,
      "NewRecovered": 600,
      "TotalRecovered": 327087,
      "Date": "2021-04-13T02:28:22.158Z",
      "Premium": {}
    },
    {
      "ID": "1ed09dba-0c2b-4713-8da4-70e416149cad",
      "Country": "Belgium",
      "CountryCode": "BE",
      "Slug": "belgium",
      "NewConfirmed": 2989,
      "TotalConfirmed": 925476,
      "NewDeaths": 45,
      "TotalDeaths": 23473,
      "NewRecovered": 0,
      "TotalRecovered": 0,
      "Date": "2021-04-13T02:28:22.158Z",
      "Premium": {}
    },
    {
      "ID": "84451fb1-1125-4be5-942b-31de2f051bdb",
      "Country": "Belize",
      "CountryCode": "BZ",
      "Slug": "belize",
      "NewConfirmed": 18,
      "TotalConfirmed": 12503,
      "NewDeaths": 0,
      "TotalDeaths": 318,
      "NewRecovered": 28,
      "TotalRecovered": 12134,
      "Date": "2021-04-13T02:28:22.158Z",
      "Premium": {}
    },
    {
      "ID": "a3c4ee23-a4c9-486e-ad42-921115846ce3",
      "Country": "Benin",
      "CountryCode": "BJ",
      "Slug": "benin",
      "NewConfirmed": 0,
      "TotalConfirmed": 7515,
      "NewDeaths": 0,
      "TotalDeaths": 93,
      "NewRecovered": 0,
      "TotalRecovered": 6452,
      "Date": "2021-04-13T02:28:22.158Z",
      "Premium": {}
    },
    {
      "ID": "a091d3f1-96cd-4db1-8507-03a87584468c",
      "Country": "Bhutan",
      "CountryCode": "BT",
      "Slug": "bhutan",
      "NewConfirmed": 3,
      "TotalConfirmed": 921,
      "NewDeaths": 0,
      "TotalDeaths": 1,
      "NewRecovered": 0,
      "TotalRecovered": 875,
      "Date": "2021-04-13T02:28:22.158Z",
      "Premium": {}
    },
    {
      "ID": "cecb4f19-6b30-4b24-b24e-77e9f858c113",
      "Country": "Bolivia",
      "CountryCode": "BO",
      "Slug": "bolivia",
      "NewConfirmed": 0,
      "TotalConfirmed": 282095,
      "NewDeaths": 0,
      "TotalDeaths": 12451,
      "NewRecovered": 0,
      "TotalRecovered": 231546,
      "Date": "2021-04-13T02:28:22.158Z",
      "Premium": {}
    },
    {
      "ID": "eafe65d4-0b1c-4980-8c68-4bd6993e7ccf",
      "Country": "Bosnia and Herzegovina",
      "CountryCode": "BA",
      "Slug": "bosnia-and-herzegovina",
      "NewConfirmed": 2771,
      "TotalConfirmed": 184698,
      "NewDeaths": 189,
      "TotalDeaths": 7487,
      "NewRecovered": 2183,
      "TotalRecovered": 141602,
      "Date": "2021-04-13T02:28:22.158Z",
      "Premium": {}
    },
    {
      "ID": "59701c9c-86fd-4d3c-91d2-ff26efefc2d4",
      "Country": "Botswana",
      "CountryCode": "BW",
      "Slug": "botswana",
      "NewConfirmed": 770,
      "TotalConfirmed": 43444,
      "NewDeaths": 27,
      "TotalDeaths": 663,
      "NewRecovered": 720,
      "TotalRecovered": 38923,
      "Date": "2021-04-13T02:28:22.158Z",
      "Premium": {}
    },
    {
      "ID": "959dae93-c325-4cd8-974c-f142b837487b",
      "Country": "Brazil",
      "CountryCode": "BR",
      "Slug": "brazil",
      "NewConfirmed": 37017,
      "TotalConfirmed": 13482023,
      "NewDeaths": 1803,
      "TotalDeaths": 353137,
      "NewRecovered": 139309,
      "TotalRecovered": 11878958,
      "Date": "2021-04-13T02:28:22.158Z",
      "Premium": {}
    },
    {
      "ID": "e5f76626-3e69-471a-9021-243a129cdee7",
      "Country": "Brunei Darussalam",
      "CountryCode": "BN",
      "Slug": "brunei",
      "NewConfirmed": 0,
      "TotalConfirmed": 219,
      "NewDeaths": 0,
      "TotalDeaths": 3,
      "NewRecovered": 0,
      "TotalRecovered": 206,
      "Date": "2021-04-13T02:28:22.158Z",
      "Premium": {}
    },
    {
      "ID": "10e16ff3-4371-4370-ac70-3c01a39fc028",
      "Country": "Bulgaria",
      "CountryCode": "BG",
      "Slug": "bulgaria",
      "NewConfirmed": 3122,
      "TotalConfirmed": 375115,
      "NewDeaths": 201,
      "TotalDeaths": 14619,
      "NewRecovered": 3098,
      "TotalRecovered": 289356,
      "Date": "2021-04-13T02:28:22.158Z",
      "Premium": {}
    },
    {
      "ID": "cad97fa6-164a-45d0-b070-962955c59c71",
      "Country": "Burkina Faso",
      "CountryCode": "BF",
      "Slug": "burkina-faso",
      "NewConfirmed": 33,
      "TotalConfirmed": 12989,
      "NewDeaths": 1,
      "TotalDeaths": 153,
      "NewRecovered": 34,
      "TotalRecovered": 12627,
      "Date": "2021-04-13T02:28:22.158Z",
      "Premium": {}
    },
    {
      "ID": "d46e69a2-8a41-4a81-90af-7cda63a03401",
      "Country": "Burundi",
      "CountryCode": "BI",
      "Slug": "burundi",
      "NewConfirmed": 0,
      "TotalConfirmed": 3154,
      "NewDeaths": 0,
      "TotalDeaths": 6,
      "NewRecovered": 0,
      "TotalRecovered": 773,
      "Date": "2021-04-13T02:28:22.158Z",
      "Premium": {}
    },
    {
      "ID": "efc76753-4b8c-445f-91d5-bc522a1c84be",
      "Country": "Cambodia",
      "CountryCode": "KH",
      "Slug": "cambodia",
      "NewConfirmed": 0,
      "TotalConfirmed": 4515,
      "NewDeaths": 0,
      "TotalDeaths": 30,
      "NewRecovered": 0,
      "TotalRecovered": 2212,
      "Date": "2021-04-13T02:28:22.158Z",
      "Premium": {}
    },
    {
      "ID": "12c7940c-3a48-4b38-adba-63e0d51c8035",
      "Country": "Cameroon",
      "CountryCode": "CM",
      "Slug": "cameroon",
      "NewConfirmed": 0,
      "TotalConfirmed": 61731,
      "NewDeaths": 0,
      "TotalDeaths": 919,
      "NewRecovered": 0,
      "TotalRecovered": 35261,
      "Date": "2021-04-13T02:28:22.158Z",
      "Premium": {}
    },
    {
      "ID": "5e0862bd-6f31-4dd2-accf-bd4cf19ca78d",
      "Country": "Canada",
      "CountryCode": "CA",
      "Slug": "canada",
      "NewConfirmed": 6529,
      "TotalConfirmed": 906836,
      "NewDeaths": 23,
      "TotalDeaths": 21280,
      "NewRecovered": 4789,
      "TotalRecovered": 972153,
      "Date": "2021-04-13T02:28:22.158Z",
      "Premium": {}
    },
    {
      "ID": "36c2d173-1db5-471f-b17c-35b662e2b83c",
      "Country": "Cape Verde",
      "CountryCode": "CV",
      "Slug": "cape-verde",
      "NewConfirmed": 105,
      "TotalConfirmed": 19110,
      "NewDeaths": 2,
      "TotalDeaths": 184,
      "NewRecovered": 202,
      "TotalRecovered": 17399,
      "Date": "2021-04-13T02:28:22.158Z",
      "Premium": {}
    },
    {
      "ID": "80def83d-16bc-45b3-9d78-d399340dce72",
      "Country": "Central African Republic",
      "CountryCode": "CF",
      "Slug": "central-african-republic",
      "NewConfirmed": 0,
      "TotalConfirmed": 5491,
      "NewDeaths": 0,
      "TotalDeaths": 74,
      "NewRecovered": 0,
      "TotalRecovered": 5056,
      "Date": "2021-04-13T02:28:22.158Z",
      "Premium": {}
    },
    {
      "ID": "a5e4607a-25d7-4b2b-a58f-15f6e3c3fe75",
      "Country": "Chad",
      "CountryCode": "TD",
      "Slug": "chad",
      "NewConfirmed": 5,
      "TotalConfirmed": 4641,
      "NewDeaths": 0,
      "TotalDeaths": 167,
      "NewRecovered": 12,
      "TotalRecovered": 4298,
      "Date": "2021-04-13T02:28:22.158Z",
      "Premium": {}
    },
    {
      "ID": "6a476102-f2d2-4556-b33e-5365302cb46f",
      "Country": "Chile",
      "CountryCode": "CL",
      "Slug": "chile",
      "NewConfirmed": 7977,
      "TotalConfirmed": 1076499,
      "NewDeaths": 133,
      "TotalDeaths": 24346,
      "NewRecovered": 7460,
      "TotalRecovered": 1005860,
      "Date": "2021-04-13T02:28:22.158Z",
      "Premium": {}
    },
    {
      "ID": "bd4d2c17-d8cf-4eb8-b2ea-e1a2f376dd70",
      "Country": "China",
      "CountryCode": "CN",
      "Slug": "china",
      "NewConfirmed": 29,
      "TotalConfirmed": 102056,
      "NewDeaths": 0,
      "TotalDeaths": 4843,
      "NewRecovered": 20,
      "TotalRecovered": 96747,
      "Date": "2021-04-13T02:28:22.158Z",
      "Premium": {}
    },
    {
      "ID": "4b76da6b-04ce-465f-b384-51753185e22c",
      "Country": "Colombia",
      "CountryCode": "CO",
      "Slug": "colombia",
      "NewConfirmed": 17483,
      "TotalConfirmed": 2536198,
      "NewDeaths": 281,
      "TotalDeaths": 65889,
      "NewRecovered": 8609,
      "TotalRecovered": 2383785,
      "Date": "2021-04-13T02:28:22.158Z",
      "Premium": {}
    },
    {
      "ID": "ba95a161-8b82-4a5e-98a7-d9d316c02da6",
      "Country": "Comoros",
      "CountryCode": "KM",
      "Slug": "comoros",
      "NewConfirmed": 0,
      "TotalConfirmed": 3789,
      "NewDeaths": 0,
      "TotalDeaths": 146,
      "NewRecovered": 0,
      "TotalRecovered": 3577,
      "Date": "2021-04-13T02:28:22.158Z",
      "Premium": {}
    },
    {
      "ID": "eb552309-121a-42aa-8214-f06c2e33a0ec",
      "Country": "Congo (Brazzaville)",
      "CountryCode": "CG",
      "Slug": "congo-brazzaville",
      "NewConfirmed": 0,
      "TotalConfirmed": 10084,
      "NewDeaths": 0,
      "TotalDeaths": 137,
      "NewRecovered": 0,
      "TotalRecovered": 8208,
      "Date": "2021-04-13T02:28:22.158Z",
      "Premium": {}
    },
    {
      "ID": "328412e0-7e82-4ce3-8638-a4d4672c5f15",
      "Country": "Congo (Kinshasa)",
      "CountryCode": "CD",
      "Slug": "congo-kinshasa",
      "NewConfirmed": 0,
      "TotalConfirmed": 28542,
      "NewDeaths": 0,
      "TotalDeaths": 745,
      "NewRecovered": 0,
      "TotalRecovered": 25841,
      "Date": "2021-04-13T02:28:22.158Z",
      "Premium": {}
    },
    {
      "ID": "39dab19d-0d40-4bc7-92f4-47a3a89a0ca6",
      "Country": "Costa Rica",
      "CountryCode": "CR",
      "Slug": "costa-rica",
      "NewConfirmed": 0,
      "TotalConfirmed": 222544,
      "NewDeaths": 0,
      "TotalDeaths": 3018,
      "NewRecovered": 0,
      "TotalRecovered": 194760,
      "Date": "2021-04-13T02:28:22.158Z",
      "Premium": {}
    },
    {
      "ID": "b8e8364e-d042-4629-a2df-6eb9cacca0fe",
      "Country": "Croatia",
      "CountryCode": "HR",
      "Slug": "croatia",
      "NewConfirmed": 422,
      "TotalConfirmed": 292938,
      "NewDeaths": 25,
      "TotalDeaths": 6333,
      "NewRecovered": 1794,
      "TotalRecovered": 274761,
      "Date": "2021-04-13T02:28:22.158Z",
      "Premium": {}
    },
    {
      "ID": "34b59115-eb83-475e-9ff3-f57789eae040",
      "Country": "Cuba",
      "CountryCode": "CU",
      "Slug": "cuba",
      "NewConfirmed": 854,
      "TotalConfirmed": 87385,
      "NewDeaths": 8,
      "TotalDeaths": 467,
      "NewRecovered": 1095,
      "TotalRecovered": 81900,
      "Date": "2021-04-13T02:28:22.158Z",
      "Premium": {}
    },
    {
      "ID": "8403b6fe-ebcc-45d4-8854-fe6781dbfe94",
      "Country": "Cyprus",
      "CountryCode": "CY",
      "Slug": "cyprus",
      "NewConfirmed": 528,
      "TotalConfirmed": 52033,
      "NewDeaths": 1,
      "TotalDeaths": 273,
      "NewRecovered": 0,
      "TotalRecovered": 39061,
      "Date": "2021-04-13T02:28:22.158Z",
      "Premium": {}
    },
    {
      "ID": "1832f200-1166-44b0-b111-ec54f44c5db2",
      "Country": "Czech Republic",
      "CountryCode": "CZ",
      "Slug": "czech-republic",
      "NewConfirmed": 995,
      "TotalConfirmed": 1581184,
      "NewDeaths": 110,
      "TotalDeaths": 27918,
      "NewRecovered": 17244,
      "TotalRecovered": 1466296,
      "Date": "2021-04-13T02:28:22.158Z",
      "Premium": {}
    },
    {
      "ID": "14c668b8-7c48-4ac3-b441-5893659448ac",
      "Country": "Côte d'Ivoire",
      "CountryCode": "CI",
      "Slug": "cote-divoire",
      "NewConfirmed": 21,
      "TotalConfirmed": 45227,
      "NewDeaths": 5,
      "TotalDeaths": 268,
      "NewRecovered": 54,
      "TotalRecovered": 44683,
      "Date": "2021-04-13T02:28:22.158Z",
      "Premium": {}
    },
    {
      "ID": "ce37658f-44cc-43be-95f6-26337a2cfff5",
      "Country": "Denmark",
      "CountryCode": "DK",
      "Slug": "denmark",
      "NewConfirmed": 0,
      "TotalConfirmed": 238484,
      "NewDeaths": 1,
      "TotalDeaths": 2443,
      "NewRecovered": 0,
      "TotalRecovered": 227321,
      "Date": "2021-04-13T02:28:22.158Z",
      "Premium": {}
    },
    {
      "ID": "1bfbcf35-6572-4735-86bd-0e624cd094f5",
      "Country": "Djibouti",
      "CountryCode": "DJ",
      "Slug": "djibouti",
      "NewConfirmed": 99,
      "TotalConfirmed": 9975,
      "NewDeaths": 4,
      "TotalDeaths": 100,
      "NewRecovered": 199,
      "TotalRecovered": 8184,
      "Date": "2021-04-13T02:28:22.158Z",
      "Premium": {}
    },
    {
      "ID": "45913d61-4ba0-4e18-93d1-4f2c453fec47",
      "Country": "Dominica",
      "CountryCode": "DM",
      "Slug": "dominica",
      "NewConfirmed": 0,
      "TotalConfirmed": 165,
      "NewDeaths": 0,
      "TotalDeaths": 0,
      "NewRecovered": 0,
      "TotalRecovered": 159,
      "Date": "2021-04-13T02:28:22.158Z",
      "Premium": {}
    },
    {
      "ID": "2f786715-69b5-4b91-b201-ff1254c9cdc4",
      "Country": "Dominican Republic",
      "CountryCode": "DO",
      "Slug": "dominican-republic",
      "NewConfirmed": 341,
      "TotalConfirmed": 258039,
      "NewDeaths": 4,
      "TotalDeaths": 3392,
      "NewRecovered": 328,
      "TotalRecovered": 216780,
      "Date": "2021-04-13T02:28:22.158Z",
      "Premium": {}
    },
    {
      "ID": "0d3b5350-f1ba-475f-b424-c0f97ab00825",
      "Country": "Ecuador",
      "CountryCode": "EC",
      "Slug": "ecuador",
      "NewConfirmed": 253,
      "TotalConfirmed": 347070,
      "NewDeaths": 5,
      "TotalDeaths": 17298,
      "NewRecovered": 0,
      "TotalRecovered": 290314,
      "Date": "2021-04-13T02:28:22.158Z",
      "Premium": {}
    },
    {
      "ID": "d2552c95-4c55-436f-9927-ce5b3b28733b",
      "Country": "Egypt",
      "CountryCode": "EG",
      "Slug": "egypt",
      "NewConfirmed": 818,
      "TotalConfirmed": 211307,
      "NewDeaths": 42,
      "TotalDeaths": 12487,
      "NewRecovered": 500,
      "TotalRecovered": 159999,
      "Date": "2021-04-13T02:28:22.158Z",
      "Premium": {}
    },
    {
      "ID": "40ee2f15-594d-4335-bedf-0c0f5f502e50",
      "Country": "El Salvador",
      "CountryCode": "SV",
      "Slug": "el-salvador",
      "NewConfirmed": 0,
      "TotalConfirmed": 66489,
      "NewDeaths": 3,
      "TotalDeaths": 2054,
      "NewRecovered": 0,
      "TotalRecovered": 62958,
      "Date": "2021-04-13T02:28:22.158Z",
      "Premium": {}
    },
    {
      "ID": "01712baa-fee5-4715-9b47-74e0c399637d",
      "Country": "Equatorial Guinea",
      "CountryCode": "GQ",
      "Slug": "equatorial-guinea",
      "NewConfirmed": 0,
      "TotalConfirmed": 7219,
      "NewDeaths": 0,
      "TotalDeaths": 106,
      "NewRecovered": 0,
      "TotalRecovered": 6799,
      "Date": "2021-04-13T02:28:22.158Z",
      "Premium": {}
    },
    {
      "ID": "ad218d04-f48a-4ab1-8e50-78856c560565",
      "Country": "Eritrea",
      "CountryCode": "ER",
      "Slug": "eritrea",
      "NewConfirmed": 19,
      "TotalConfirmed": 3466,
      "NewDeaths": 0,
      "TotalDeaths": 10,
      "NewRecovered": 30,
      "TotalRecovered": 3196,
      "Date": "2021-04-13T02:28:22.158Z",
      "Premium": {}
    },
    {
      "ID": "dcaaf61b-a13d-400c-bcd8-61841b9ca107",
      "Country": "Estonia",
      "CountryCode": "EE",
      "Slug": "estonia",
      "NewConfirmed": 269,
      "TotalConfirmed": 114443,
      "NewDeaths": 9,
      "TotalDeaths": 1037,
      "NewRecovered": 439,
      "TotalRecovered": 95246,
      "Date": "2021-04-13T02:28:22.158Z",
      "Premium": {}
    },
    {
      "ID": "f1426d71-34c3-460a-8623-810ace252c1a",
      "Country": "Ethiopia",
      "CountryCode": "ET",
      "Slug": "ethiopia",
      "NewConfirmed": 1948,
      "TotalConfirmed": 230944,
      "NewDeaths": 34,
      "TotalDeaths": 3208,
      "NewRecovered": 1347,
      "TotalRecovered": 171980,
      "Date": "2021-04-13T02:28:22.158Z",
      "Premium": {}
    },
    {
      "ID": "098d31cf-45e4-44a1-a5fc-a39efb259485",
      "Country": "Fiji",
      "CountryCode": "FJ",
      "Slug": "fiji",
      "NewConfirmed": 0,
      "TotalConfirmed": 68,
      "NewDeaths": 0,
      "TotalDeaths": 2,
      "NewRecovered": 0,
      "TotalRecovered": 64,
      "Date": "2021-04-13T02:28:22.158Z",
      "Premium": {}
    },
    {
      "ID": "07e907f3-a909-4825-837d-09e6addc8438",
      "Country": "Finland",
      "CountryCode": "FI",
      "Slug": "finland",
      "NewConfirmed": 225,
      "TotalConfirmed": 82278,
      "NewDeaths": 6,
      "TotalDeaths": 874,
      "NewRecovered": 0,
      "TotalRecovered": 46000,
      "Date": "2021-04-13T02:28:22.158Z",
      "Premium": {}
    },
    {
      "ID": "10a8c1f4-3f79-494c-a687-3680eb2a7a19",
      "Country": "France",
      "CountryCode": "FR",
      "Slug": "france",
      "NewConfirmed": 0,
      "TotalConfirmed": 5119585,
      "NewDeaths": 0,
      "TotalDeaths": 98909,
      "NewRecovered": 0,
      "TotalRecovered": 316616,
      "Date": "2021-04-13T02:28:22.158Z",
      "Premium": {}
    },
    {
      "ID": "64452c17-ffbf-4146-8c9e-1f7927a0faf0",
      "Country": "Gabon",
      "CountryCode": "GA",
      "Slug": "gabon",
      "NewConfirmed": 335,
      "TotalConfirmed": 20971,
      "NewDeaths": 2,
      "TotalDeaths": 129,
      "NewRecovered": 306,
      "TotalRecovered": 17762,
      "Date": "2021-04-13T02:28:22.158Z",
      "Premium": {}
    },
    {
      "ID": "480545e3-a227-42f3-baa3-bcfc47699480",
      "Country": "Gambia",
      "CountryCode": "GM",
      "Slug": "gambia",
      "NewConfirmed": 0,
      "TotalConfirmed": 5602,
      "NewDeaths": 0,
      "TotalDeaths": 168,
      "NewRecovered": 0,
      "TotalRecovered": 5145,
      "Date": "2021-04-13T02:28:22.158Z",
      "Premium": {}
    },
    {
      "ID": "0a5cbb70-1508-4d2b-bd6e-68b02e4ef891",
      "Country": "Georgia",
      "CountryCode": "GE",
      "Slug": "georgia",
      "NewConfirmed": 359,
      "TotalConfirmed": 288755,
      "NewDeaths": 6,
      "TotalDeaths": 3883,
      "NewRecovered": 526,
      "TotalRecovered": 277829,
      "Date": "2021-04-13T02:28:22.158Z",
      "Premium": {}
    },
    {
      "ID": "073d1104-029e-4d54-9515-f9ff34c8a456",
      "Country": "Germany",
      "CountryCode": "DE",
      "Slug": "germany",
      "NewConfirmed": 2706,
      "TotalConfirmed": 3012158,
      "NewDeaths": 98,
      "TotalDeaths": 78500,
      "NewRecovered": 23320,
      "TotalRecovered": 2692230,
      "Date": "2021-04-13T02:28:22.158Z",
      "Premium": {}
    },
    {
      "ID": "76777daf-87a8-4d73-8d3f-4bdc9f40727a",
      "Country": "Ghana",
      "CountryCode": "GH",
      "Slug": "ghana",
      "NewConfirmed": 0,
      "TotalConfirmed": 91260,
      "NewDeaths": 0,
      "TotalDeaths": 754,
      "NewRecovered": 0,
      "TotalRecovered": 89092,
      "Date": "2021-04-13T02:28:22.158Z",
      "Premium": {}
    },
    {
      "ID": "abd0209f-b79e-4766-95d4-0e1a809e1c18",
      "Country": "Greece",
      "CountryCode": "GR",
      "Slug": "greece",
      "NewConfirmed": 1606,
      "TotalConfirmed": 297086,
      "NewDeaths": 76,
      "TotalDeaths": 8961,
      "NewRecovered": 0,
      "TotalRecovered": 93764,
      "Date": "2021-04-13T02:28:22.158Z",
      "Premium": {}
    },
    {
      "ID": "7bc86f51-1ba7-40d1-84b0-77466512e389",
      "Country": "Grenada",
      "CountryCode": "GD",
      "Slug": "grenada",
      "NewConfirmed": 0,
      "TotalConfirmed": 155,
      "NewDeaths": 0,
      "TotalDeaths": 1,
      "NewRecovered": 0,
      "TotalRecovered": 152,
      "Date": "2021-04-13T02:28:22.158Z",
      "Premium": {}
    },
    {
      "ID": "d2ba8a02-d48c-4585-907e-ad26ce90e822",
      "Country": "Guatemala",
      "CountryCode": "GT",
      "Slug": "guatemala",
      "NewConfirmed": 238,
      "TotalConfirmed": 203309,
      "NewDeaths": 4,
      "TotalDeaths": 7020,
      "NewRecovered": 578,
      "TotalRecovered": 186127,
      "Date": "2021-04-13T02:28:22.158Z",
      "Premium": {}
    },
    {
      "ID": "6c15111b-deba-4d26-8f00-2728f86cac97",
      "Country": "Guinea",
      "CountryCode": "GN",
      "Slug": "guinea",
      "NewConfirmed": 83,
      "TotalConfirmed": 21032,
      "NewDeaths": 2,
      "TotalDeaths": 136,
      "NewRecovered": 50,
      "TotalRecovered": 18613,
      "Date": "2021-04-13T02:28:22.158Z",
      "Premium": {}
    },
    {
      "ID": "c6ab40c7-aec5-42d5-94f6-d37ec753d4f4",
      "Country": "Guinea-Bissau",
      "CountryCode": "GW",
      "Slug": "guinea-bissau",
      "NewConfirmed": 0,
      "TotalConfirmed": 3680,
      "NewDeaths": 0,
      "TotalDeaths": 66,
      "NewRecovered": 0,
      "TotalRecovered": 3069,
      "Date": "2021-04-13T02:28:22.158Z",
      "Premium": {}
    },
    {
      "ID": "daf054a9-6825-4666-b6a1-1033cf203d30",
      "Country": "Guyana",
      "CountryCode": "GY",
      "Slug": "guyana",
      "NewConfirmed": 40,
      "TotalConfirmed": 11189,
      "NewDeaths": 2,
      "TotalDeaths": 257,
      "NewRecovered": 30,
      "TotalRecovered": 9751,
      "Date": "2021-04-13T02:28:22.158Z",
      "Premium": {}
    },
    {
      "ID": "9ab6ae08-9da3-48ab-a36b-420a665630e9",
      "Country": "Haiti",
      "CountryCode": "HT",
      "Slug": "haiti",
      "NewConfirmed": 0,
      "TotalConfirmed": 12840,
      "NewDeaths": 0,
      "TotalDeaths": 252,
      "NewRecovered": 66,
      "TotalRecovered": 11513,
      "Date": "2021-04-13T02:28:22.158Z",
      "Premium": {}
    },
    {
      "ID": "9db61407-78eb-4355-b29c-6386cb225a1b",
      "Country": "Holy See (Vatican City State)",
      "CountryCode": "VA",
      "Slug": "holy-see-vatican-city-state",
      "NewConfirmed": 0,
      "TotalConfirmed": 27,
      "NewDeaths": 0,
      "TotalDeaths": 0,
      "NewRecovered": 0,
      "TotalRecovered": 15,
      "Date": "2021-04-13T02:28:22.158Z",
      "Premium": {}
    },
    {
      "ID": "30177bf3-9fe6-45d4-9d8f-e1b357890001",
      "Country": "Honduras",
      "CountryCode": "HN",
      "Slug": "honduras",
      "NewConfirmed": 0,
      "TotalConfirmed": 195780,
      "NewDeaths": 0,
      "TotalDeaths": 4804,
      "NewRecovered": 0,
      "TotalRecovered": 75796,
      "Date": "2021-04-13T02:28:22.158Z",
      "Premium": {}
    },
    {
      "ID": "fc8d52e4-f936-4fc9-9b4b-ff311b71dc2b",
      "Country": "Hungary",
      "CountryCode": "HU",
      "Slug": "hungary",
      "NewConfirmed": 5077,
      "TotalConfirmed": 725241,
      "NewDeaths": 291,
      "TotalDeaths": 23708,
      "NewRecovered": 2680,
      "TotalRecovered": 429074,
      "Date": "2021-04-13T02:28:22.158Z",
      "Premium": {}
    },
    {
      "ID": "182696da-2d10-4268-84db-d82fe122f4c2",
      "Country": "Iceland",
      "CountryCode": "IS",
      "Slug": "iceland",
      "NewConfirmed": 9,
      "TotalConfirmed": 6267,
      "NewDeaths": 0,
      "TotalDeaths": 29,
      "NewRecovered": 14,
      "TotalRecovered": 6140,
      "Date": "2021-04-13T02:28:22.158Z",
      "Premium": {}
    },
    {
      "ID": "32f5f6ea-fb14-4674-9326-67565ec3c171",
      "Country": "India",
      "CountryCode": "IN",
      "Slug": "india",
      "NewConfirmed": 168912,
      "TotalConfirmed": 13527717,
      "NewDeaths": 904,
      "TotalDeaths": 170179,
      "NewRecovered": 75086,
      "TotalRecovered": 12156529,
      "Date": "2021-04-13T02:28:22.158Z",
      "Premium": {}
    },
    {
      "ID": "154ef078-69c9-4178-a30e-b43e6fa2b569",
      "Country": "Indonesia",
      "CountryCode": "ID",
      "Slug": "indonesia",
      "NewConfirmed": 4829,
      "TotalConfirmed": 1571824,
      "NewDeaths": 126,
      "TotalDeaths": 42656,
      "NewRecovered": 5289,
      "TotalRecovered": 1419796,
      "Date": "2021-04-13T02:28:22.158Z",
      "Premium": {}
    },
    {
      "ID": "a11d5eac-89f5-4e42-9afc-8fbf081d024e",
      "Country": "Iran, Islamic Republic of",
      "CountryCode": "IR",
      "Slug": "iran",
      "NewConfirmed": 23311,
      "TotalConfirmed": 2093452,
      "NewDeaths": 274,
      "TotalDeaths": 64764,
      "NewRecovered": 9110,
      "TotalRecovered": 1720084,
      "Date": "2021-04-13T02:28:22.158Z",
      "Premium": {}
    },
    {
      "ID": "1e3daa28-074d-4a60-a9ba-826de81c4d37",
      "Country": "Iraq",
      "CountryCode": "IQ",
      "Slug": "iraq",
      "NewConfirmed": 7953,
      "TotalConfirmed": 932899,
      "NewDeaths": 44,
      "TotalDeaths": 14757,
      "NewRecovered": 5679,
      "TotalRecovered": 820532,
      "Date": "2021-04-13T02:28:22.158Z",
      "Premium": {}
    },
    {
      "ID": "0964f86b-3b01-49e4-b281-05c959376a4c",
      "Country": "Ireland",
      "CountryCode": "IE",
      "Slug": "ireland",
      "NewConfirmed": 385,
      "TotalConfirmed": 241330,
      "NewDeaths": 0,
      "TotalDeaths": 4785,
      "NewRecovered": 0,
      "TotalRecovered": 23364,
      "Date": "2021-04-13T02:28:22.158Z",
      "Premium": {}
    },
    {
      "ID": "f023972f-2b70-4000-821a-ff1763de2362",
      "Country": "Israel",
      "CountryCode": "IL",
      "Slug": "israel",
      "NewConfirmed": 225,
      "TotalConfirmed": 836158,
      "NewDeaths": 8,
      "TotalDeaths": 6304,
      "NewRecovered": 289,
      "TotalRecovered": 826494,
      "Date": "2021-04-13T02:28:22.158Z",
      "Premium": {}
    },
    {
      "ID": "33129539-d5ae-4cb4-81ab-559dc2327e4e",
      "Country": "Italy",
      "CountryCode": "IT",
      "Slug": "italy",
      "NewConfirmed": 15737,
      "TotalConfirmed": 3769814,
      "NewDeaths": 331,
      "TotalDeaths": 114254,
      "NewRecovered": 15486,
      "TotalRecovered": 3122555,
      "Date": "2021-04-13T02:28:22.158Z",
      "Premium": {}
    },
    {
      "ID": "e09877bc-08e3-4bd5-907a-8fd3adf8c8b7",
      "Country": "Jamaica",
      "CountryCode": "JM",
      "Slug": "jamaica",
      "NewConfirmed": 263,
      "TotalConfirmed": 42763,
      "NewDeaths": 4,
      "TotalDeaths": 676,
      "NewRecovered": 121,
      "TotalRecovered": 19017,
      "Date": "2021-04-13T02:28:22.158Z",
      "Premium": {}
    },
    {
      "ID": "455fe09c-8edf-4d5f-a75b-d7e73ed4e478",
      "Country": "Japan",
      "CountryCode": "JP",
      "Slug": "japan",
      "NewConfirmed": 2700,
      "TotalConfirmed": 506237,
      "NewDeaths": 17,
      "TotalDeaths": 9369,
      "NewRecovered": 4885,
      "TotalRecovered": 463569,
      "Date": "2021-04-13T02:28:22.158Z",
      "Premium": {}
    },
    {
      "ID": "7ae1ea96-18f2-4cf9-892b-33e97871e549",
      "Country": "Jordan",
      "CountryCode": "JO",
      "Slug": "jordan",
      "NewConfirmed": 3565,
      "TotalConfirmed": 669300,
      "NewDeaths": 82,
      "TotalDeaths": 7855,
      "NewRecovered": 7751,
      "TotalRecovered": 604044,
      "Date": "2021-04-13T02:28:22.158Z",
      "Premium": {}
    },
    {
      "ID": "0be37bb1-4c74-4d7d-b0e3-a6f889b50f72",
      "Country": "Kazakhstan",
      "CountryCode": "KZ",
      "Slug": "kazakhstan",
      "NewConfirmed": 0,
      "TotalConfirmed": 323207,
      "NewDeaths": 0,
      "TotalDeaths": 3267,
      "NewRecovered": 0,
      "TotalRecovered": 284767,
      "Date": "2021-04-13T02:28:22.158Z",
      "Premium": {}
    },
    {
      "ID": "24dd6066-58eb-4e11-a467-7f82c9886c8a",
      "Country": "Kenya",
      "CountryCode": "KE",
      "Slug": "kenya",
      "NewConfirmed": 486,
      "TotalConfirmed": 146156,
      "NewDeaths": 20,
      "TotalDeaths": 2368,
      "NewRecovered": 115,
      "TotalRecovered": 99210,
      "Date": "2021-04-13T02:28:22.158Z",
      "Premium": {}
    },
    {
      "ID": "7abba1bc-d238-4a95-9d3b-34a68cadb4fa",
      "Country": "Korea (South)",
      "CountryCode": "KR",
      "Slug": "korea-south",
      "NewConfirmed": 0,
      "TotalConfirmed": 110146,
      "NewDeaths": 0,
      "TotalDeaths": 1770,
      "NewRecovered": 0,
      "TotalRecovered": 100804,
      "Date": "2021-04-13T02:28:22.158Z",
      "Premium": {}
    },
    {
      "ID": "08c9decc-4dfc-40aa-bcc9-447972e39d8c",
      "Country": "Kuwait",
      "CountryCode": "KW",
      "Slug": "kuwait",
      "NewConfirmed": 1635,
      "TotalConfirmed": 248729,
      "NewDeaths": 5,
      "TotalDeaths": 1412,
      "NewRecovered": 1316,
      "TotalRecovered": 232556,
      "Date": "2021-04-13T02:28:22.158Z",
      "Premium": {}
    },
    {
      "ID": "33b187ff-8c79-4bb7-b455-aed3dc995fbf",
      "Country": "Kyrgyzstan",
      "CountryCode": "KG",
      "Slug": "kyrgyzstan",
      "NewConfirmed": 145,
      "TotalConfirmed": 90372,
      "NewDeaths": 6,
      "TotalDeaths": 1528,
      "NewRecovered": 103,
      "TotalRecovered": 86028,
      "Date": "2021-04-13T02:28:22.158Z",
      "Premium": {}
    },
    {
      "ID": "3c2db362-8683-454e-82b4-e167842b0d99",
      "Country": "Lao PDR",
      "CountryCode": "LA",
      "Slug": "lao-pdr",
      "NewConfirmed": 1,
      "TotalConfirmed": 52,
      "NewDeaths": 0,
      "TotalDeaths": 0,
      "NewRecovered": 2,
      "TotalRecovered": 49,
      "Date": "2021-04-13T02:28:22.158Z",
      "Premium": {}
    },
    {
      "ID": "64ce83a3-ecec-407b-9200-b2f6913db0d6",
      "Country": "Latvia",
      "CountryCode": "LV",
      "Slug": "latvia",
      "NewConfirmed": 210,
      "TotalConfirmed": 107818,
      "NewDeaths": 4,
      "TotalDeaths": 1990,
      "NewRecovered": 162,
      "TotalRecovered": 99324,
      "Date": "2021-04-13T02:28:22.158Z",
      "Premium": {}
    },
    {
      "ID": "4677ab7f-99ec-4e25-abd6-feee473ad597",
      "Country": "Lebanon",
      "CountryCode": "LB",
      "Slug": "lebanon",
      "NewConfirmed": 1008,
      "TotalConfirmed": 497854,
      "NewDeaths": 42,
      "TotalDeaths": 6703,
      "NewRecovered": 3923,
      "TotalRecovered": 406095,
      "Date": "2021-04-13T02:28:22.158Z",
      "Premium": {}
    },
    {
      "ID": "4613023f-43a9-4c26-af9d-7e0dc56f42ab",
      "Country": "Lesotho",
      "CountryCode": "LS",
      "Slug": "lesotho",
      "NewConfirmed": 2,
      "TotalConfirmed": 10709,
      "NewDeaths": 0,
      "TotalDeaths": 315,
      "NewRecovered": 354,
      "TotalRecovered": 5028,
      "Date": "2021-04-13T02:28:22.158Z",
      "Premium": {}
    },
    {
      "ID": "0003a760-bd8a-45ec-94ad-e6b7b6c9c76d",
      "Country": "Liberia",
      "CountryCode": "LR",
      "Slug": "liberia",
      "NewConfirmed": 0,
      "TotalConfirmed": 2042,
      "NewDeaths": 0,
      "TotalDeaths": 85,
      "NewRecovered": 0,
      "TotalRecovered": 1899,
      "Date": "2021-04-13T02:28:22.158Z",
      "Premium": {}
    },
    {
      "ID": "ff241b25-4c5e-408f-a8fc-e7e38b22a7a9",
      "Country": "Libya",
      "CountryCode": "LY",
      "Slug": "libya",
      "NewConfirmed": 851,
      "TotalConfirmed": 168676,
      "NewDeaths": 5,
      "TotalDeaths": 2828,
      "NewRecovered": 723,
      "TotalRecovered": 153644,
      "Date": "2021-04-13T02:28:22.158Z",
      "Premium": {}
    },
    {
      "ID": "5abeb467-da1b-433b-a562-35f78680677b",
      "Country": "Liechtenstein",
      "CountryCode": "LI",
      "Slug": "liechtenstein",
      "NewConfirmed": 1,
      "TotalConfirmed": 2754,
      "NewDeaths": 0,
      "TotalDeaths": 56,
      "NewRecovered": 19,
      "TotalRecovered": 2625,
      "Date": "2021-04-13T02:28:22.158Z",
      "Premium": {}
    },
    {
      "ID": "6cd6ad67-4217-4427-9794-f3c7e168b42e",
      "Country": "Lithuania",
      "CountryCode": "LT",
      "Slug": "lithuania",
      "NewConfirmed": 610,
      "TotalConfirmed": 226783,
      "NewDeaths": 10,
      "TotalDeaths": 3697,
      "NewRecovered": 68,
      "TotalRecovered": 205965,
      "Date": "2021-04-13T02:28:22.158Z",
      "Premium": {}
    },
    {
      "ID": "99de101a-42a3-422d-91d9-0ea56fe7520a",
      "Country": "Luxembourg",
      "CountryCode": "LU",
      "Slug": "luxembourg",
      "NewConfirmed": 413,
      "TotalConfirmed": 63880,
      "NewDeaths": 9,
      "TotalDeaths": 772,
      "NewRecovered": 820,
      "TotalRecovered": 59988,
      "Date": "2021-04-13T02:28:22.158Z",
      "Premium": {}
    },
    {
      "ID": "e7d25ace-081f-45cf-9eb9-814d7d5e0567",
      "Country": "Macedonia, Republic of",
      "CountryCode": "MK",
      "Slug": "macedonia",
      "NewConfirmed": 190,
      "TotalConfirmed": 142034,
      "NewDeaths": 34,
      "TotalDeaths": 4262,
      "NewRecovered": 1014,
      "TotalRecovered": 117794,
      "Date": "2021-04-13T02:28:22.158Z",
      "Premium": {}
    },
    {
      "ID": "faf89616-3494-43c4-b9e8-0666d703a041",
      "Country": "Madagascar",
      "CountryCode": "MG",
      "Slug": "madagascar",
      "NewConfirmed": 478,
      "TotalConfirmed": 28541,
      "NewDeaths": 6,
      "TotalDeaths": 506,
      "NewRecovered": 227,
      "TotalRecovered": 24105,
      "Date": "2021-04-13T02:28:22.158Z",
      "Premium": {}
    },
    {
      "ID": "13ce3e47-42e2-4bca-ba51-e2c881693679",
      "Country": "Malawi",
      "CountryCode": "MW",
      "Slug": "malawi",
      "NewConfirmed": 32,
      "TotalConfirmed": 33859,
      "NewDeaths": 4,
      "TotalDeaths": 1132,
      "NewRecovered": 93,
      "TotalRecovered": 31572,
      "Date": "2021-04-13T02:28:22.158Z",
      "Premium": {}
    },
    {
      "ID": "83c527e1-5e15-44ec-bac6-1c89d6d27116",
      "Country": "Malaysia",
      "CountryCode": "MY",
      "Slug": "malaysia",
      "NewConfirmed": 1317,
      "TotalConfirmed": 362173,
      "NewDeaths": 4,
      "TotalDeaths": 1333,
      "NewRecovered": 1052,
      "TotalRecovered": 345005,
      "Date": "2021-04-13T02:28:22.158Z",
      "Premium": {}
    },
    {
      "ID": "9878da44-8e2f-4442-b576-4802681e0c9f",
      "Country": "Maldives",
      "CountryCode": "MV",
      "Slug": "maldives",
      "NewConfirmed": 84,
      "TotalConfirmed": 25701,
      "NewDeaths": 0,
      "TotalDeaths": 67,
      "NewRecovered": 245,
      "TotalRecovered": 22796,
      "Date": "2021-04-13T02:28:22.158Z",
      "Premium": {}
    },
    {
      "ID": "f0215a6f-90e9-46d0-b1ec-127ccf47a9e2",
      "Country": "Mali",
      "CountryCode": "ML",
      "Slug": "mali",
      "NewConfirmed": 158,
      "TotalConfirmed": 12002,
      "NewDeaths": 6,
      "TotalDeaths": 414,
      "NewRecovered": 23,
      "TotalRecovered": 7166,
      "Date": "2021-04-13T02:28:22.158Z",
      "Premium": {}
    },
    {
      "ID": "1bcd2be1-0bb9-4c41-b553-8574e92c6395",
      "Country": "Malta",
      "CountryCode": "MT",
      "Slug": "malta",
      "NewConfirmed": 47,
      "TotalConfirmed": 29661,
      "NewDeaths": 0,
      "TotalDeaths": 402,
      "NewRecovered": 52,
      "TotalRecovered": 28706,
      "Date": "2021-04-13T02:28:22.158Z",
      "Premium": {}
    },
    {
      "ID": "2c2d47da-9423-4fca-90c9-d2f1e9eef9c4",
      "Country": "Marshall Islands",
      "CountryCode": "MH",
      "Slug": "marshall-islands",
      "NewConfirmed": 0,
      "TotalConfirmed": 4,
      "NewDeaths": 0,
      "TotalDeaths": 0,
      "NewRecovered": 0,
      "TotalRecovered": 4,
      "Date": "2021-04-13T02:28:22.158Z",
      "Premium": {}
    },
    {
      "ID": "ad99070e-d2da-4989-98d2-2133b3b0de24",
      "Country": "Mauritania",
      "CountryCode": "MR",
      "Slug": "mauritania",
      "NewConfirmed": 13,
      "TotalConfirmed": 18035,
      "NewDeaths": 0,
      "TotalDeaths": 450,
      "NewRecovered": 26,
      "TotalRecovered": 17373,
      "Date": "2021-04-13T02:28:22.158Z",
      "Premium": {}
    },
    {
      "ID": "436d0d1d-73df-47e9-9825-23af9833de35",
      "Country": "Mauritius",
      "CountryCode": "MU",
      "Slug": "mauritius",
      "NewConfirmed": 1,
      "TotalConfirmed": 1193,
      "NewDeaths": 3,
      "TotalDeaths": 15,
      "NewRecovered": 22,
      "TotalRecovered": 797,
      "Date": "2021-04-13T02:28:22.158Z",
      "Premium": {}
    },
    {
      "ID": "b2529444-edbd-4a47-9171-4d6a6478f097",
      "Country": "Mexico",
      "CountryCode": "MX",
      "Slug": "mexico",
      "NewConfirmed": 1793,
      "TotalConfirmed": 2280213,
      "NewDeaths": 126,
      "TotalDeaths": 209338,
      "NewRecovered": 0,
      "TotalRecovered": 1765244,
      "Date": "2021-04-13T02:28:22.158Z",
      "Premium": {}
    },
    {
      "ID": "8c1fa985-c02b-4b50-a1f9-03a26fe01df0",
      "Country": "Micronesia, Federated States of",
      "CountryCode": "FM",
      "Slug": "micronesia",
      "NewConfirmed": 0,
      "TotalConfirmed": 1,
      "NewDeaths": 0,
      "TotalDeaths": 0,
      "NewRecovered": 0,
      "TotalRecovered": 1,
      "Date": "2021-04-13T02:28:22.158Z",
      "Premium": {}
    },
    {
      "ID": "c4fa10c7-ea29-4d80-9d39-4cee74fd12d8",
      "Country": "Moldova",
      "CountryCode": "MD",
      "Slug": "moldova",
      "NewConfirmed": 603,
      "TotalConfirmed": 241820,
      "NewDeaths": 21,
      "TotalDeaths": 5409,
      "NewRecovered": 895,
      "TotalRecovered": 223822,
      "Date": "2021-04-13T02:28:22.158Z",
      "Premium": {}
    },
    {
      "ID": "7f682801-c565-4ed4-bdb3-69cf509f3cb7",
      "Country": "Monaco",
      "CountryCode": "MC",
      "Slug": "monaco",
      "NewConfirmed": 2,
      "TotalConfirmed": 2377,
      "NewDeaths": 0,
      "TotalDeaths": 31,
      "NewRecovered": 5,
      "TotalRecovered": 2247,
      "Date": "2021-04-13T02:28:22.158Z",
      "Premium": {}
    },
    {
      "ID": "9c982571-1411-4376-8702-881384149e5c",
      "Country": "Mongolia",
      "CountryCode": "MN",
      "Slug": "mongolia",
      "NewConfirmed": 704,
      "TotalConfirmed": 15718,
      "NewDeaths": 3,
      "TotalDeaths": 25,
      "NewRecovered": 357,
      "TotalRecovered": 9516,
      "Date": "2021-04-13T02:28:22.158Z",
      "Premium": {}
    },
    {
      "ID": "8f2425ee-6e6e-4ae4-a54f-d33972da9d04",
      "Country": "Montenegro",
      "CountryCode": "ME",
      "Slug": "montenegro",
      "NewConfirmed": 150,
      "TotalConfirmed": 94419,
      "NewDeaths": 8,
      "TotalDeaths": 1381,
      "NewRecovered": 329,
      "TotalRecovered": 88834,
      "Date": "2021-04-13T02:28:22.158Z",
      "Premium": {}
    },
    {
      "ID": "66ab5377-f7ed-4049-a1f8-4802f071ba2f",
      "Country": "Morocco",
      "CountryCode": "MA",
      "Slug": "morocco",
      "NewConfirmed": 175,
      "TotalConfirmed": 502277,
      "NewDeaths": 9,
      "TotalDeaths": 8909,
      "NewRecovered": 271,
      "TotalRecovered": 488632,
      "Date": "2021-04-13T02:28:22.158Z",
      "Premium": {}
    },
    {
      "ID": "f0315a66-5e59-435c-9d92-2eb8a5258e9e",
      "Country": "Mozambique",
      "CountryCode": "MZ",
      "Slug": "mozambique",
      "NewConfirmed": 34,
      "TotalConfirmed": 68792,
      "NewDeaths": 0,
      "TotalDeaths": 791,
      "NewRecovered": 497,
      "TotalRecovered": 59401,
      "Date": "2021-04-13T02:28:22.158Z",
      "Premium": {}
    },
    {
      "ID": "4da66b63-116d-4b23-8de4-3fe32592b9b5",
      "Country": "Myanmar",
      "CountryCode": "MM",
      "Slug": "myanmar",
      "NewConfirmed": 20,
      "TotalConfirmed": 142596,
      "NewDeaths": 0,
      "TotalDeaths": 3206,
      "NewRecovered": 16,
      "TotalRecovered": 131869,
      "Date": "2021-04-13T02:28:22.158Z",
      "Premium": {}
    },
    {
      "ID": "51d3a573-83c2-4311-84a0-d1296ad93504",
      "Country": "Namibia",
      "CountryCode": "NA",
      "Slug": "namibia",
      "NewConfirmed": 260,
      "TotalConfirmed": 45787,
      "NewDeaths": 5,
      "TotalDeaths": 575,
      "NewRecovered": 81,
      "TotalRecovered": 43721,
      "Date": "2021-04-13T02:28:22.158Z",
      "Premium": {}
    },
    {
      "ID": "512d33ff-e0a6-4d30-90e4-ba3d2b171fdd",
      "Country": "Nepal",
      "CountryCode": "NP",
      "Slug": "nepal",
      "NewConfirmed": 496,
      "TotalConfirmed": 280524,
      "NewDeaths": 13,
      "TotalDeaths": 3053,
      "NewRecovered": 138,
      "TotalRecovered": 274165,
      "Date": "2021-04-13T02:28:22.158Z",
      "Premium": {}
    },
    {
      "ID": "3f6b6cdd-3c47-4c19-87f3-e7a7d416eaf4",
      "Country": "Netherlands",
      "CountryCode": "NL",
      "Slug": "netherlands",
      "NewConfirmed": 8218,
      "TotalConfirmed": 1350665,
      "NewDeaths": 17,
      "TotalDeaths": 16771,
      "NewRecovered": 0,
      "TotalRecovered": 0,
      "Date": "2021-04-13T02:28:22.158Z",
      "Premium": {}
    },
    {
      "ID": "dd330c74-a91c-4081-a608-cb9a846786da",
      "Country": "New Zealand",
      "CountryCode": "NZ",
      "Slug": "new-zealand",
      "NewConfirmed": 0,
      "TotalConfirmed": 2583,
      "NewDeaths": 0,
      "TotalDeaths": 26,
      "NewRecovered": 0,
      "TotalRecovered": 2457,
      "Date": "2021-04-13T02:28:22.158Z",
      "Premium": {}
    },
    {
      "ID": "97225587-98a8-453f-a5e6-4d4c58fd0c0e",
      "Country": "Nicaragua",
      "CountryCode": "NI",
      "Slug": "nicaragua",
      "NewConfirmed": 0,
      "TotalConfirmed": 6727,
      "NewDeaths": 0,
      "TotalDeaths": 179,
      "NewRecovered": 0,
      "TotalRecovered": 4225,
      "Date": "2021-04-13T02:28:22.158Z",
      "Premium": {}
    },
    {
      "ID": "1b224d8a-6e70-4684-9620-c93596320309",
      "Country": "Niger",
      "CountryCode": "NE",
      "Slug": "niger",
      "NewConfirmed": 0,
      "TotalConfirmed": 5074,
      "NewDeaths": 0,
      "TotalDeaths": 189,
      "NewRecovered": 13,
      "TotalRecovered": 4760,
      "Date": "2021-04-13T02:28:22.158Z",
      "Premium": {}
    },
    {
      "ID": "edfd7978-47e7-4654-ab06-5300fb9a39ba",
      "Country": "Nigeria",
      "CountryCode": "NG",
      "Slug": "nigeria",
      "NewConfirmed": 38,
      "TotalConfirmed": 163837,
      "NewDeaths": 1,
      "TotalDeaths": 2061,
      "NewRecovered": 70,
      "TotalRecovered": 154177,
      "Date": "2021-04-13T02:28:22.158Z",
      "Premium": {}
    },
    {
      "ID": "f120d723-1223-41cb-a628-f766ed208b4c",
      "Country": "Norway",
      "CountryCode": "NO",
      "Slug": "norway",
      "NewConfirmed": 648,
      "TotalConfirmed": 104269,
      "NewDeaths": 3,
      "TotalDeaths": 687,
      "NewRecovered": 0,
      "TotalRecovered": 17998,
      "Date": "2021-04-13T02:28:22.158Z",
      "Premium": {}
    },
    {
      "ID": "b3f47e78-8f65-4db3-a4ac-424e89b1adba",
      "Country": "Oman",
      "CountryCode": "OM",
      "Slug": "oman",
      "NewConfirmed": 1480,
      "TotalConfirmed": 173029,
      "NewDeaths": 13,
      "TotalDeaths": 1789,
      "NewRecovered": 1202,
      "TotalRecovered": 153986,
      "Date": "2021-04-13T02:28:22.158Z",
      "Premium": {}
    },
    {
      "ID": "9dbc1942-5303-47a8-9f46-a5d5d2ccfdba",
      "Country": "Pakistan",
      "CountryCode": "PK",
      "Slug": "pakistan",
      "NewConfirmed": 4584,
      "TotalConfirmed": 725602,
      "NewDeaths": 58,
      "TotalDeaths": 15501,
      "NewRecovered": 3135,
      "TotalRecovered": 634835,
      "Date": "2021-04-13T02:28:22.158Z",
      "Premium": {}
    },
    {
      "ID": "a03dcd7e-6dee-4039-8030-8e997e5d6229",
      "Country": "Palestinian Territory",
      "CountryCode": "PS",
      "Slug": "palestine",
      "NewConfirmed": 2724,
      "TotalConfirmed": 270856,
      "NewDeaths": 23,
      "TotalDeaths": 2883,
      "NewRecovered": 1738,
      "TotalRecovered": 234698,
      "Date": "2021-04-13T02:28:22.158Z",
      "Premium": {}
    },
    {
      "ID": "0a7a5bf8-2b93-4c0e-abe3-03ddc1ad2dea",
      "Country": "Panama",
      "CountryCode": "PA",
      "Slug": "panama",
      "NewConfirmed": 0,
      "TotalConfirmed": 358611,
      "NewDeaths": 0,
      "TotalDeaths": 6163,
      "NewRecovered": 0,
      "TotalRecovered": 348231,
      "Date": "2021-04-13T02:28:22.158Z",
      "Premium": {}
    },
    {
      "ID": "bb329884-5182-4444-b97d-8e1421fd4cca",
      "Country": "Papua New Guinea",
      "CountryCode": "PG",
      "Slug": "papua-new-guinea",
      "NewConfirmed": 160,
      "TotalConfirmed": 8602,
      "NewDeaths": 1,
      "TotalDeaths": 69,
      "NewRecovered": 0,
      "TotalRecovered": 846,
      "Date": "2021-04-13T02:28:22.158Z",
      "Premium": {}
    },
    {
      "ID": "ca6473f3-b4da-4fbc-a01c-39a10fc194ca",
      "Country": "Paraguay",
      "CountryCode": "PY",
      "Slug": "paraguay",
      "NewConfirmed": 0,
      "TotalConfirmed": 235292,
      "NewDeaths": 62,
      "TotalDeaths": 4889,
      "NewRecovered": 1701,
      "TotalRecovered": 194987,
      "Date": "2021-04-13T02:28:22.158Z",
      "Premium": {}
    },
    {
      "ID": "22124700-8699-410f-a996-2ac91481cd3f",
      "Country": "Peru",
      "CountryCode": "PE",
      "Slug": "peru",
      "NewConfirmed": 7927,
      "TotalConfirmed": 1647694,
      "NewDeaths": 234,
      "TotalDeaths": 54903,
      "NewRecovered": 8764,
      "TotalRecovered": 1566543,
      "Date": "2021-04-13T02:28:22.158Z",
      "Premium": {}
    },
    {
      "ID": "10ee08f3-2643-42b5-b487-66e53051177e",
      "Country": "Philippines",
      "CountryCode": "PH",
      "Slug": "philippines",
      "NewConfirmed": 11357,
      "TotalConfirmed": 876225,
      "NewDeaths": 204,
      "TotalDeaths": 15149,
      "NewRecovered": 221,
      "TotalRecovered": 703625,
      "Date": "2021-04-13T02:28:22.158Z",
      "Premium": {}
    },
    {
      "ID": "2e4a1bb5-0017-4b9a-aebc-eddf00002c94",
      "Country": "Poland",
      "CountryCode": "PL",
      "Slug": "poland",
      "NewConfirmed": 12016,
      "TotalConfirmed": 2586647,
      "NewDeaths": 60,
      "TotalDeaths": 58481,
      "NewRecovered": 26481,
      "TotalRecovered": 2197782,
      "Date": "2021-04-13T02:28:22.158Z",
      "Premium": {}
    },
    {
      "ID": "cef8835e-fbc0-4c4f-9e93-1496f442c3dd",
      "Country": "Portugal",
      "CountryCode": "PT",
      "Slug": "portugal",
      "NewConfirmed": 271,
      "TotalConfirmed": 827765,
      "NewDeaths": 2,
      "TotalDeaths": 16918,
      "NewRecovered": 445,
      "TotalRecovered": 785063,
      "Date": "2021-04-13T02:28:22.158Z",
      "Premium": {}
    },
    {
      "ID": "0c396d23-313e-41ef-841a-b5d5b625098e",
      "Country": "Qatar",
      "CountryCode": "QA",
      "Slug": "qatar",
      "NewConfirmed": 973,
      "TotalConfirmed": 190998,
      "NewDeaths": 2,
      "TotalDeaths": 335,
      "NewRecovered": 559,
      "TotalRecovered": 170194,
      "Date": "2021-04-13T02:28:22.158Z",
      "Premium": {}
    },
    {
      "ID": "e0beb2c3-0fbd-4e6c-9fe6-bec5c322d44b",
      "Country": "Republic of Kosovo",
      "CountryCode": "XK",
      "Slug": "kosovo",
      "NewConfirmed": 0,
      "TotalConfirmed": 95886,
      "NewDeaths": 0,
      "TotalDeaths": 1968,
      "NewRecovered": 0,
      "TotalRecovered": 80344,
      "Date": "2021-04-13T02:28:22.158Z",
      "Premium": {}
    },
    {
      "ID": "532b3325-cac6-4145-b75f-9968dfd368f4",
      "Country": "Romania",
      "CountryCode": "RO",
      "Slug": "romania",
      "NewConfirmed": 2323,
      "TotalConfirmed": 1008490,
      "NewDeaths": 113,
      "TotalDeaths": 25248,
      "NewRecovered": 3639,
      "TotalRecovered": 910298,
      "Date": "2021-04-13T02:28:22.158Z",
      "Premium": {}
    },
    {
      "ID": "336dfb01-8374-436a-9265-05cf0e9709d4",
      "Country": "Russian Federation",
      "CountryCode": "RU",
      "Slug": "russia",
      "NewConfirmed": 8576,
      "TotalConfirmed": 4589209,
      "NewDeaths": 333,
      "TotalDeaths": 101282,
      "NewRecovered": 7206,
      "TotalRecovered": 4216960,
      "Date": "2021-04-13T02:28:22.158Z",
      "Premium": {}
    },
    {
      "ID": "52692906-bb2f-411b-8bb1-48a952578d70",
      "Country": "Rwanda",
      "CountryCode": "RW",
      "Slug": "rwanda",
      "NewConfirmed": 109,
      "TotalConfirmed": 23535,
      "NewDeaths": 1,
      "TotalDeaths": 316,
      "NewRecovered": 29,
      "TotalRecovered": 21272,
      "Date": "2021-04-13T02:28:22.158Z",
      "Premium": {}
    },
    {
      "ID": "1f48911a-273b-42ff-ab0a-75d671f3e8a2",
      "Country": "Saint Kitts and Nevis",
      "CountryCode": "KN",
      "Slug": "saint-kitts-and-nevis",
      "NewConfirmed": 0,
      "TotalConfirmed": 44,
      "NewDeaths": 0,
      "TotalDeaths": 0,
      "NewRecovered": 0,
      "TotalRecovered": 44,
      "Date": "2021-04-13T02:28:22.158Z",
      "Premium": {}
    },
    {
      "ID": "ef2c6751-0034-4ed6-9805-851effc6303d",
      "Country": "Saint Lucia",
      "CountryCode": "LC",
      "Slug": "saint-lucia",
      "NewConfirmed": 7,
      "TotalConfirmed": 4355,
      "NewDeaths": 0,
      "TotalDeaths": 64,
      "NewRecovered": 5,
      "TotalRecovered": 4179,
      "Date": "2021-04-13T02:28:22.158Z",
      "Premium": {}
    },
    {
      "ID": "7febd921-17f7-4745-a5ae-453b94f46565",
      "Country": "Saint Vincent and Grenadines",
      "CountryCode": "VC",
      "Slug": "saint-vincent-and-the-grenadines",
      "NewConfirmed": 14,
      "TotalConfirmed": 1806,
      "NewDeaths": 0,
      "TotalDeaths": 10,
      "NewRecovered": 0,
      "TotalRecovered": 1665,
      "Date": "2021-04-13T02:28:22.158Z",
      "Premium": {}
    },
    {
      "ID": "1259856b-54af-4d10-a03e-e40337898856",
      "Country": "Samoa",
      "CountryCode": "WS",
      "Slug": "samoa",
      "NewConfirmed": 0,
      "TotalConfirmed": 3,
      "NewDeaths": 0,
      "TotalDeaths": 0,
      "NewRecovered": 0,
      "TotalRecovered": 2,
      "Date": "2021-04-13T02:28:22.158Z",
      "Premium": {}
    },
    {
      "ID": "13d952f2-8f06-4740-b7df-d7ad14f26208",
      "Country": "San Marino",
      "CountryCode": "SM",
      "Slug": "san-marino",
      "NewConfirmed": 6,
      "TotalConfirmed": 4962,
      "NewDeaths": 1,
      "TotalDeaths": 86,
      "NewRecovered": 33,
      "TotalRecovered": 4510,
      "Date": "2021-04-13T02:28:22.158Z",
      "Premium": {}
    },
    {
      "ID": "cf2f2ff5-043f-47d0-b8a3-7eccb46eb3e8",
      "Country": "Sao Tome and Principe",
      "CountryCode": "ST",
      "Slug": "sao-tome-and-principe",
      "NewConfirmed": 1,
      "TotalConfirmed": 2267,
      "NewDeaths": 0,
      "TotalDeaths": 35,
      "NewRecovered": 4,
      "TotalRecovered": 2188,
      "Date": "2021-04-13T02:28:22.158Z",
      "Premium": {}
    },
    {
      "ID": "dc7d3feb-3289-4713-8328-3b8bfc9b9e8d",
      "Country": "Saudi Arabia",
      "CountryCode": "SA",
      "Slug": "saudi-arabia",
      "NewConfirmed": 842,
      "TotalConfirmed": 399277,
      "NewDeaths": 11,
      "TotalDeaths": 6765,
      "NewRecovered": 706,
      "TotalRecovered": 384027,
      "Date": "2021-04-13T02:28:22.158Z",
      "Premium": {}
    },
    {
      "ID": "a02fe6c8-95ab-45d1-8428-058532c6ee16",
      "Country": "Senegal",
      "CountryCode": "SN",
      "Slug": "senegal",
      "NewConfirmed": 34,
      "TotalConfirmed": 39465,
      "NewDeaths": 1,
      "TotalDeaths": 1079,
      "NewRecovered": 41,
      "TotalRecovered": 38215,
      "Date": "2021-04-13T02:28:22.158Z",
      "Premium": {}
    },
    {
      "ID": "e24f377b-3e74-497e-b0cc-cf9efd5f0603",
      "Country": "Serbia",
      "CountryCode": "RS",
      "Slug": "serbia",
      "NewConfirmed": 2965,
      "TotalConfirmed": 645173,
      "NewDeaths": 38,
      "TotalDeaths": 5773,
      "NewRecovered": 0,
      "TotalRecovered": 0,
      "Date": "2021-04-13T02:28:22.158Z",
      "Premium": {}
    },
    {
      "ID": "3fd7df52-06d6-43da-8b6b-faca763093de",
      "Country": "Seychelles",
      "CountryCode": "SC",
      "Slug": "seychelles",
      "NewConfirmed": 0,
      "TotalConfirmed": 4430,
      "NewDeaths": 1,
      "TotalDeaths": 25,
      "NewRecovered": 38,
      "TotalRecovered": 4161,
      "Date": "2021-04-13T02:28:22.158Z",
      "Premium": {}
    },
    {
      "ID": "8eeb6998-1a2c-4deb-8590-a0b770267532",
      "Country": "Sierra Leone",
      "CountryCode": "SL",
      "Slug": "sierra-leone",
      "NewConfirmed": 3,
      "TotalConfirmed": 4008,
      "NewDeaths": 0,
      "TotalDeaths": 79,
      "NewRecovered": 0,
      "TotalRecovered": 2831,
      "Date": "2021-04-13T02:28:22.158Z",
      "Premium": {}
    },
    {
      "ID": "86f713f9-7f8c-4038-9290-71a7d19b025d",
      "Country": "Singapore",
      "CountryCode": "SG",
      "Slug": "singapore",
      "NewConfirmed": 25,
      "TotalConfirmed": 60678,
      "NewDeaths": 0,
      "TotalDeaths": 30,
      "NewRecovered": 22,
      "TotalRecovered": 60357,
      "Date": "2021-04-13T02:28:22.158Z",
      "Premium": {}
    },
    {
      "ID": "434d4e90-dce7-4c7b-bf9e-3be38b7d21b8",
      "Country": "Slovakia",
      "CountryCode": "SK",
      "Slug": "slovakia",
      "NewConfirmed": 106,
      "TotalConfirmed": 371168,
      "NewDeaths": 65,
      "TotalDeaths": 10630,
      "NewRecovered": 0,
      "TotalRecovered": 255300,
      "Date": "2021-04-13T02:28:22.158Z",
      "Premium": {}
    },
    {
      "ID": "2d416241-029a-4e3e-bf35-7a8f8d3a64c6",
      "Country": "Slovenia",
      "CountryCode": "SI",
      "Slug": "slovenia",
      "NewConfirmed": 287,
      "TotalConfirmed": 226786,
      "NewDeaths": 7,
      "TotalDeaths": 4126,
      "NewRecovered": 281,
      "TotalRecovered": 208842,
      "Date": "2021-04-13T02:28:22.158Z",
      "Premium": {}
    },
    {
      "ID": "2b3b1f96-d8a3-4065-b211-cb5b2cc5006a",
      "Country": "Solomon Islands",
      "CountryCode": "SB",
      "Slug": "solomon-islands",
      "NewConfirmed": 0,
      "TotalConfirmed": 19,
      "NewDeaths": 0,
      "TotalDeaths": 0,
      "NewRecovered": 0,
      "TotalRecovered": 18,
      "Date": "2021-04-13T02:28:22.158Z",
      "Premium": {}
    },
    {
      "ID": "767d3962-647f-43e1-860d-1ea8aa6e347e",
      "Country": "Somalia",
      "CountryCode": "SO",
      "Slug": "somalia",
      "NewConfirmed": 160,
      "TotalConfirmed": 12566,
      "NewDeaths": 0,
      "TotalDeaths": 618,
      "NewRecovered": 48,
      "TotalRecovered": 5270,
      "Date": "2021-04-13T02:28:22.158Z",
      "Premium": {}
    },
    {
      "ID": "076edf19-c59d-4a1b-81cb-1cb4318b3771",
      "Country": "South Africa",
      "CountryCode": "ZA",
      "Slug": "south-africa",
      "NewConfirmed": 655,
      "TotalConfirmed": 1559113,
      "NewDeaths": 34,
      "TotalDeaths": 53356,
      "NewRecovered": 1060,
      "TotalRecovered": 1484356,
      "Date": "2021-04-13T02:28:22.158Z",
      "Premium": {}
    },
    {
      "ID": "5a39af49-f892-4ef8-853b-8a7702d1ef36",
      "Country": "South Sudan",
      "CountryCode": "SS",
      "Slug": "south-sudan",
      "NewConfirmed": 9,
      "TotalConfirmed": 10381,
      "NewDeaths": 0,
      "TotalDeaths": 114,
      "NewRecovered": 58,
      "TotalRecovered": 10148,
      "Date": "2021-04-13T02:28:22.158Z",
      "Premium": {}
    },
    {
      "ID": "1592c8ee-409a-4a99-86c1-f9efedace22b",
      "Country": "Spain",
      "CountryCode": "ES",
      "Slug": "spain",
      "NewConfirmed": 0,
      "TotalConfirmed": 3347512,
      "NewDeaths": 0,
      "TotalDeaths": 76328,
      "NewRecovered": 0,
      "TotalRecovered": 150376,
      "Date": "2021-04-13T02:28:22.158Z",
      "Premium": {}
    },
    {
      "ID": "f0ec3376-b59d-4c8e-9d3c-8e595c692db2",
      "Country": "Sri Lanka",
      "CountryCode": "LK",
      "Slug": "sri-lanka",
      "NewConfirmed": 263,
      "TotalConfirmed": 95394,
      "NewDeaths": 0,
      "TotalDeaths": 598,
      "NewRecovered": 144,
      "TotalRecovered": 91775,
      "Date": "2021-04-13T02:28:22.158Z",
      "Premium": {}
    },
    {
      "ID": "ef6c6c2a-008f-4b48-956b-1b2a1f430d64",
      "Country": "Sudan",
      "CountryCode": "SD",
      "Slug": "sudan",
      "NewConfirmed": 0,
      "TotalConfirmed": 31833,
      "NewDeaths": 0,
      "TotalDeaths": 2063,
      "NewRecovered": 0,
      "TotalRecovered": 24214,
      "Date": "2021-04-13T02:28:22.158Z",
      "Premium": {}
    },
    {
      "ID": "da9d0083-be85-4e88-a6da-7c8732a7812b",
      "Country": "Suriname",
      "CountryCode": "SR",
      "Slug": "suriname",
      "NewConfirmed": 0,
      "TotalConfirmed": 9302,
      "NewDeaths": 0,
      "TotalDeaths": 182,
      "NewRecovered": 31,
      "TotalRecovered": 8700,
      "Date": "2021-04-13T02:28:22.158Z",
      "Premium": {}
    },
    {
      "ID": "5f0ac351-bf80-4e8a-9d0f-425f3644099c",
      "Country": "Swaziland",
      "CountryCode": "SZ",
      "Slug": "swaziland",
      "NewConfirmed": 1017,
      "TotalConfirmed": 18393,
      "NewDeaths": 0,
      "TotalDeaths": 669,
      "NewRecovered": 1037,
      "TotalRecovered": 17682,
      "Date": "2021-04-13T02:28:22.158Z",
      "Premium": {}
    },
    {
      "ID": "52d47c14-216e-486b-8035-2ffdb528a2f2",
      "Country": "Sweden",
      "CountryCode": "SE",
      "Slug": "sweden",
      "NewConfirmed": 0,
      "TotalConfirmed": 857401,
      "NewDeaths": 0,
      "TotalDeaths": 13621,
      "NewRecovered": 0,
      "TotalRecovered": 0,
      "Date": "2021-04-13T02:28:22.158Z",
      "Premium": {}
    },
    {
      "ID": "5d52062c-36f0-4cc1-9d0d-dd863f48ce9c",
      "Country": "Switzerland",
      "CountryCode": "CH",
      "Slug": "switzerland",
      "NewConfirmed": 5583,
      "TotalConfirmed": 623126,
      "NewDeaths": 13,
      "TotalDeaths": 10466,
      "NewRecovered": 0,
      "TotalRecovered": 317600,
      "Date": "2021-04-13T02:28:22.158Z",
      "Premium": {}
    },
    {
      "ID": "7ff35f54-24ee-406e-9bca-fdce46c26ee3",
      "Country": "Syrian Arab Republic (Syria)",
      "CountryCode": "SY",
      "Slug": "syria",
      "NewConfirmed": 105,
      "TotalConfirmed": 20331,
      "NewDeaths": 7,
      "TotalDeaths": 1385,
      "NewRecovered": 110,
      "TotalRecovered": 14122,
      "Date": "2021-04-13T02:28:22.158Z",
      "Premium": {}
    },
    {
      "ID": "30e8f2e5-50e9-4698-b8af-b06c855a08ff",
      "Country": "Taiwan, Republic of China",
      "CountryCode": "TW",
      "Slug": "taiwan",
      "NewConfirmed": 1,
      "TotalConfirmed": 1058,
      "NewDeaths": 0,
      "TotalDeaths": 11,
      "NewRecovered": 4,
      "TotalRecovered": 1026,
      "Date": "2021-04-13T02:28:22.158Z",
      "Premium": {}
    },
    {
      "ID": "c0951b48-8d47-4e12-946a-7235a22f644d",
      "Country": "Tajikistan",
      "CountryCode": "TJ",
      "Slug": "tajikistan",
      "NewConfirmed": 0,
      "TotalConfirmed": 13308,
      "NewDeaths": 0,
      "TotalDeaths": 90,
      "NewRecovered": 0,
      "TotalRecovered": 13218,
      "Date": "2021-04-13T02:28:22.158Z",
      "Premium": {}
    },
    {
      "ID": "a0df6df6-d0ba-4a57-b50b-c1aa75f7cc07",
      "Country": "Tanzania, United Republic of",
      "CountryCode": "TZ",
      "Slug": "tanzania",
      "NewConfirmed": 0,
      "TotalConfirmed": 509,
      "NewDeaths": 0,
      "TotalDeaths": 21,
      "NewRecovered": 0,
      "TotalRecovered": 183,
      "Date": "2021-04-13T02:28:22.158Z",
      "Premium": {}
    },
    {
      "ID": "062d0852-8377-4d63-968c-23f238ec9680",
      "Country": "Thailand",
      "CountryCode": "TH",
      "Slug": "thailand",
      "NewConfirmed": 985,
      "TotalConfirmed": 33610,
      "NewDeaths": 0,
      "TotalDeaths": 97,
      "NewRecovered": 0,
      "TotalRecovered": 26873,
      "Date": "2021-04-13T02:28:22.158Z",
      "Premium": {}
    },
    {
      "ID": "50acc806-005f-40b8-b154-5c17244815ac",
      "Country": "Timor-Leste",
      "CountryCode": "TL",
      "Slug": "timor-leste",
      "NewConfirmed": 99,
      "TotalConfirmed": 1046,
      "NewDeaths": 0,
      "TotalDeaths": 1,
      "NewRecovered": 107,
      "TotalRecovered": 550,
      "Date": "2021-04-13T02:28:22.158Z",
      "Premium": {}
    },
    {
      "ID": "7d236228-befb-46e5-a357-b10727f19315",
      "Country": "Togo",
      "CountryCode": "TG",
      "Slug": "togo",
      "NewConfirmed": 28,
      "TotalConfirmed": 12034,
      "NewDeaths": 0,
      "TotalDeaths": 116,
      "NewRecovered": 29,
      "TotalRecovered": 9303,
      "Date": "2021-04-13T02:28:22.158Z",
      "Premium": {}
    },
    {
      "ID": "eb6b48d0-fb8e-43ad-88e2-2925e62000c7",
      "Country": "Trinidad and Tobago",
      "CountryCode": "TT",
      "Slug": "trinidad-and-tobago",
      "NewConfirmed": 37,
      "TotalConfirmed": 8441,
      "NewDeaths": 0,
      "TotalDeaths": 146,
      "NewRecovered": 35,
      "TotalRecovered": 7775,
      "Date": "2021-04-13T02:28:22.158Z",
      "Premium": {}
    },
    {
      "ID": "469887f7-76dd-4695-9320-27754564a70b",
      "Country": "Tunisia",
      "CountryCode": "TN",
      "Slug": "tunisia",
      "NewConfirmed": 1079,
      "TotalConfirmed": 272940,
      "NewDeaths": 39,
      "TotalDeaths": 9332,
      "NewRecovered": 1163,
      "TotalRecovered": 226070,
      "Date": "2021-04-13T02:28:22.158Z",
      "Premium": {}
    },
    {
      "ID": "bc936b29-01f4-464c-8edb-10f5954767e0",
      "Country": "Turkey",
      "CountryCode": "TR",
      "Slug": "turkey",
      "NewConfirmed": 54562,
      "TotalConfirmed": 3903573,
      "NewDeaths": 243,
      "TotalDeaths": 34182,
      "NewRecovered": 41218,
      "TotalRecovered": 3372629,
      "Date": "2021-04-13T02:28:22.158Z",
      "Premium": {}
    },
    {
      "ID": "0af0b646-e2b0-4210-9da3-5f0603bdd6e9",
      "Country": "Uganda",
      "CountryCode": "UG",
      "Slug": "uganda",
      "NewConfirmed": 34,
      "TotalConfirmed": 41174,
      "NewDeaths": 0,
      "TotalDeaths": 337,
      "NewRecovered": 94,
      "TotalRecovered": 40779,
      "Date": "2021-04-13T02:28:22.158Z",
      "Premium": {}
    },
    {
      "ID": "76947415-7947-4867-bb2f-61d6a3ed6932",
      "Country": "Ukraine",
      "CountryCode": "UA",
      "Slug": "ukraine",
      "NewConfirmed": 12238,
      "TotalConfirmed": 1905430,
      "NewDeaths": 239,
      "TotalDeaths": 38718,
      "NewRecovered": 5058,
      "TotalRecovered": 1459409,
      "Date": "2021-04-13T02:28:22.158Z",
      "Premium": {}
    },
    {
      "ID": "001ec232-6bc1-45c6-8185-3c1ff1858626",
      "Country": "United Arab Emirates",
      "CountryCode": "AE",
      "Slug": "united-arab-emirates",
      "NewConfirmed": 1928,
      "TotalConfirmed": 485675,
      "NewDeaths": 2,
      "TotalDeaths": 1533,
      "NewRecovered": 1719,
      "TotalRecovered": 470175,
      "Date": "2021-04-13T02:28:22.158Z",
      "Premium": {}
    },
    {
      "ID": "95299abf-b1e0-4381-bb39-04f815a1e710",
      "Country": "United Kingdom",
      "CountryCode": "GB",
      "Slug": "united-kingdom",
      "NewConfirmed": 1730,
      "TotalConfirmed": 4384610,
      "NewDeaths": 7,
      "TotalDeaths": 127331,
      "NewRecovered": 0,
      "TotalRecovered": 13494,
      "Date": "2021-04-13T02:28:22.158Z",
      "Premium": {}
    },
    {
      "ID": "a9b3824a-a4a0-4dc3-b285-d5d9241c745b",
      "Country": "United States of America",
      "CountryCode": "US",
      "Slug": "united-states",
      "NewConfirmed": 46378,
      "TotalConfirmed": 31197873,
      "NewDeaths": 283,
      "TotalDeaths": 562066,
      "NewRecovered": 0,
      "TotalRecovered": 0,
      "Date": "2021-04-13T02:28:22.158Z",
      "Premium": {}
    },
    {
      "ID": "85098638-2382-4e66-8d8c-7475903c5034",
      "Country": "Uruguay",
      "CountryCode": "UY",
      "Slug": "uruguay",
      "NewConfirmed": 0,
      "TotalConfirmed": 144642,
      "NewDeaths": 0,
      "TotalDeaths": 1462,
      "NewRecovered": 0,
      "TotalRecovered": 110277,
      "Date": "2021-04-13T02:28:22.158Z",
      "Premium": {}
    },
    {
      "ID": "cbee97c7-e96f-4410-9306-85e2756c450d",
      "Country": "Uzbekistan",
      "CountryCode": "UZ",
      "Slug": "uzbekistan",
      "NewConfirmed": 192,
      "TotalConfirmed": 85114,
      "NewDeaths": 0,
      "TotalDeaths": 634,
      "NewRecovered": 183,
      "TotalRecovered": 82943,
      "Date": "2021-04-13T02:28:22.158Z",
      "Premium": {}
    },
    {
      "ID": "a42ec283-fbe7-4cf7-bdba-c990bc109d3f",
      "Country": "Vanuatu",
      "CountryCode": "VU",
      "Slug": "vanuatu",
      "NewConfirmed": 0,
      "TotalConfirmed": 3,
      "NewDeaths": 0,
      "TotalDeaths": 0,
      "NewRecovered": 0,
      "TotalRecovered": 1,
      "Date": "2021-04-13T02:28:22.158Z",
      "Premium": {}
    },
    {
      "ID": "5255ae81-c39e-4baa-a3ce-a9db57902513",
      "Country": "Venezuela (Bolivarian Republic)",
      "CountryCode": "VE",
      "Slug": "venezuela",
      "NewConfirmed": 0,
      "TotalConfirmed": 174887,
      "NewDeaths": 0,
      "TotalDeaths": 1778,
      "NewRecovered": 0,
      "TotalRecovered": 157486,
      "Date": "2021-04-13T02:28:22.158Z",
      "Premium": {}
    },
    {
      "ID": "a1aedad6-3a90-423d-875a-e06c0fa23635",
      "Country": "Viet Nam",
      "CountryCode": "VN",
      "Slug": "vietnam",
      "NewConfirmed": 12,
      "TotalConfirmed": 2705,
      "NewDeaths": 0,
      "TotalDeaths": 35,
      "NewRecovered": 16,
      "TotalRecovered": 2445,
      "Date": "2021-04-13T02:28:22.158Z",
      "Premium": {}
    },
    {
      "ID": "3882d7d3-d134-4627-9bf3-292ed0d4dd7e",
      "Country": "Yemen",
      "CountryCode": "YE",
      "Slug": "yemen",
      "NewConfirmed": 89,
      "TotalConfirmed": 5446,
      "NewDeaths": 19,
      "TotalDeaths": 1068,
      "NewRecovered": 6,
      "TotalRecovered": 2059,
      "Date": "2021-04-13T02:28:22.158Z",
      "Premium": {}
    },
    {
      "ID": "ed265fce-5787-4308-b5b5-74df47ae5c63",
      "Country": "Zambia",
      "CountryCode": "ZM",
      "Slug": "zambia",
      "NewConfirmed": 35,
      "TotalConfirmed": 90064,
      "NewDeaths": 1,
      "TotalDeaths": 1227,
      "NewRecovered": 59,
      "TotalRecovered": 88077,
      "Date": "2021-04-13T02:28:22.158Z",
      "Premium": {}
    },
    {
      "ID": "fefdbe36-dac2-42b3-b5d7-69f1c0c7f5a8",
      "Country": "Zimbabwe",
      "CountryCode": "ZW",
      "Slug": "zimbabwe",
      "NewConfirmed": 19,
      "TotalConfirmed": 37307,
      "NewDeaths": 4,
      "TotalDeaths": 1542,
      "NewRecovered": 28,
      "TotalRecovered": 34901,
      "Date": "2021-04-13T02:28:22.158Z",
      "Premium": {}
    }
  ],
  "Date": "2021-04-13T02:28:22.158Z"
}
